{
  "code": 200,
  "data": {
    "content": [
      {
        "createBy": "SYSTEM",
        "createTime": 1564210401000,
        "delFlag": 0,
        "device": null,
        "deviceId": 17,
        "displayFlag": 0,
        "id": 4,
        "lastUpdateBy": null,
        "lastUpdateTime": 1564210404000,
        "orderNum": 0,
        "poi": null,
        "poiId": 32,
        "remark": null
      },
      {
        "createBy": "SYSTEM",
        "createTime": 1564210401000,
        "delFlag": 0,
        "device": null,
        "deviceId": 18,
        "displayFlag": 0,
        "id": 5,
        "lastUpdateBy": null,
        "lastUpdateTime": 1564210404000,
        "orderNum": 0,
        "poi": null,
        "poiId": 54,
        "remark": null
      },
      {
        "createBy": null,
        "createTime": 1572355336000,
        "delFlag": 0,
        "device": null,
        "deviceId": 38,
        "displayFlag": 0,
        "id": 7,
        "lastUpdateBy": null,
        "lastUpdateTime": null,
        "orderNum": 1,
        "poi": null,
        "poiId": 71,
        "remark": "lz苏州蓝牙定位测试"
      },
      {
        "createBy": "admin",
        "createTime": 1572486977000,
        "delFlag": 0,
        "device": null,
        "deviceId": 36,
        "displayFlag": 0,
        "id": 8,
        "lastUpdateBy": null,
        "lastUpdateTime": null,
        "orderNum": 0,
        "poi": null,
        "poiId": 18,
        "remark": "天然居测试"
      },
      {
        "createBy": "admin",
        "createTime": 1572486977000,
        "delFlag": 0,
        "device": null,
        "deviceId": 40,
        "displayFlag": 0,
        "id": 9,
        "lastUpdateBy": null,
        "lastUpdateTime": null,
        "orderNum": 0,
        "poi": null,
        "poiId": 35,
        "remark": "lqx世纪大道测试"
      },
      {
        "createBy": "admin",
        "createTime": 1572486977000,
        "delFlag": 0,
        "device": null,
        "deviceId": 41,
        "displayFlag": 0,
        "id": 10,
        "lastUpdateBy": null,
        "lastUpdateTime": null,
        "orderNum": 0,
        "poi": null,
        "poiId": 35,
        "remark": "lqx世纪大道测试"
      },
      {
        "createBy": "admin",
        "createTime": 1572486977000,
        "delFlag": 0,
        "device": null,
        "deviceId": 42,
        "displayFlag": 0,
        "id": 11,
        "lastUpdateBy": null,
        "lastUpdateTime": null,
        "orderNum": 0,
        "poi": null,
        "poiId": 35,
        "remark": "lqx世纪大道测试"
      },
      {
        "createBy": null,
        "createTime": 1573465894000,
        "delFlag": 0,
        "device": null,
        "deviceId": 46,
        "displayFlag": 0,
        "id": 12,
        "lastUpdateBy": "lz",
        "lastUpdateTime": 1573401600000,
        "orderNum": 1,
        "poi": null,
        "poiId": 25,
        "remark": "上海植物园蓝牙推送测试"
      },
      {
        "createBy": null,
        "createTime": 1573542872000,
        "delFlag": 0,
        "device": null,
        "deviceId": 48,
        "displayFlag": 0,
        "id": 13,
        "lastUpdateBy": "lz",
        "lastUpdateTime": 1573488000000,
        "orderNum": 10,
        "poi": null,
        "poiId": 91,
        "remark": "园南幼儿园"
      },
      {
        "createBy": null,
        "createTime": 1573542914000,
        "delFlag": 0,
        "device": null,
        "deviceId": 49,
        "displayFlag": 0,
        "id": 14,
        "lastUpdateBy": "lz",
        "lastUpdateTime": 1573488000000,
        "orderNum": 10,
        "poi": null,
        "poiId": 92,
        "remark": "南苑别墅"
      }
    ],
    "pageNum": 1,
    "pageSize": 10,
    "totalPages": 2,
    "totalSize": 11
  },
  "msg": null
}
